…
pp_tbl("point") |>
  filter(amenity == "fast_food" & way %&&% !!pg_bbox(bbox)) |>
  mutate(cuisine = tags %->% "cuisine") |>
  select(name, cuisine, way) |>
  collect()
#> Simple feature collection with 141 features and 2 fields
#> Geometry type: POINT
#> Dimension:     XY
#> Bounding box:  xmin: 8.346221 ymin: 48.97115 xmax: 8.459447 ymax: 49.02864
#> Geodetic CRS:  WGS 84
#> # A tibble: 141 × 3
#>    name                       cuisine                             geometry
#>    <chr>                      <chr>                            <POINT [°]>
#>  1 Habibi                     oriental;falafel;kebab   (8.411658 49.00911)
#>  2 Shanghai Wok               asian                    (8.371491 49.01087)
#>  3 Pizza Pazza                burger;currys;pasta;piz…  (8.392619 48.9857)
#>  4 Kayas Döner                kebab                    (8.457469 48.99779)
#>  5 anatolia Pizza & Kebaphaus kebab                    (8.366429 49.01724)
#>  6 Monis Westbahnhof          german                    (8.36379 49.00237)
#>  7 Bamboo Canteen             asian                    (8.400894 48.99431)
#>  8 Abo's Pizza & Döner        kebab;pizza              (8.360729 48.98807)
#>  9 33 Mersin Tantuni          <NA>                     (8.453179 48.99663)
#> 10 Pizza King 60              <NA>                      (8.374086 48.9944)
#> # ℹ 131 more rows
```
